v 20201216 2
C 40000 40000 0 0 0 title-B.sym
C 46500 45500 1 0 0 asic-nmos-1.sym
{
T 47900 46300 5 8 0 0 0 0 1
device=NMOS_TRANSISTOR
T 47300 46300 5 10 1 1 0 0 1
refdes=M1
T 47300 46100 5 8 1 1 0 0 1
model-name=nmos
T 47300 45800 5 8 1 0 0 0 1
w=2u
T 47300 45600 5 8 1 0 0 0 1
l=1u
}
C 45400 43700 1 0 0 gnd-1.sym
C 47000 43700 1 0 0 gnd-1.sym
N 47100 45500 47100 44000 4
N 47200 46000 48000 46000 4
N 48000 46000 48000 45000 4
N 48000 45000 47100 45000 4
N 45500 44600 45500 44000 4
N 45500 45500 45500 46000 4
N 45500 46000 46500 46000 4
{
T 45600 46050 5 10 1 1 0 0 1
netname=in
}
C 44200 47000 1 0 0 vdc-1.sym
{
T 44900 47650 5 10 1 1 0 0 1
refdes=Vd
T 44900 47850 5 10 0 0 0 0 1
device=VOLTAGE_SOURCE
T 44900 48050 5 10 0 0 0 0 1
footprint=none
T 44900 47450 5 10 1 1 0 0 1
value=DC 5V
}
C 44400 43700 1 0 0 gnd-1.sym
N 44500 44000 44500 47000 4
N 44500 48200 44500 49000 4
C 45300 45500 1 270 0 voltage-3.sym
{
T 46000 45300 5 8 0 0 270 0 1
device=VOLTAGE_SOURCE
T 45800 45200 5 10 1 1 270 0 1
refdes=Vg
T 45100 45200 5 10 1 1 0 0 1
value=0V
}
N 47100 46500 47100 48100 4
{
T 47050 47400 5 10 1 1 90 6 1
netname=out
}
C 49500 45900 1 0 0 spice-directive-1.sym
{
T 49600 46200 5 10 0 1 0 0 1
device=directive
T 49600 46300 5 10 1 1 0 0 1
refdes=A1
T 49600 46000 5 10 1 1 0 0 1
value=.model nmos nmos
}
C 47200 48100 1 90 0 resistor-1.sym
{
T 46800 48400 5 10 0 0 90 0 1
device=RESISTOR
T 46900 48300 5 10 1 1 90 0 1
refdes=Rd
T 47200 48100 5 10 1 0 0 0 1
value=50k
}
N 47100 49000 44500 49000 4
