v 20220529 2
C 49000 46600 1 0 0 nmos-1.sym
{
T 49700 47400 5 10 0 0 0 0 1
device=NMOS_TRANSISTOR
T 49700 47200 5 10 1 1 0 0 1
refdes=Q1
T 49700 47600 5 10 0 0 0 0 1
symversion=0.1
T 49000 46600 5 10 1 1 0 0 1
model-name=nmos
}
C 48300 45900 1 270 0 voltage-1.sym
{
T 48800 45800 5 10 0 0 270 0 1
device=VOLTAGE_SOURCE
T 48600 45100 5 10 1 1 0 0 1
refdes=Vg
T 48300 45900 5 10 1 1 180 0 1
value=0
}
C 47300 45900 1 270 0 voltage-1.sym
{
T 47800 45800 5 10 0 0 270 0 1
device=VOLTAGE_SOURCE
T 47600 45100 5 10 1 1 0 0 1
refdes=Vd
T 47300 45900 5 10 1 1 180 0 1
value=5
}
C 48400 44200 1 0 0 gnd-1.sym
C 47400 44200 1 0 0 gnd-1.sym
C 49400 44200 1 0 0 gnd-1.sym
N 47500 45000 47500 44500 4
N 47500 45900 47500 48000 4
N 47500 48000 49500 48000 4
N 49500 48000 49500 47400 4
N 48500 45900 48500 47000 4
N 48500 47000 49000 47000 4
{
T 48600 47050 5 10 1 1 0 0 1
netname=in
}
N 48500 45000 48500 44500 4
C 49400 45900 1 270 0 resistor-1.sym
{
T 49800 45600 5 10 0 0 270 0 1
device=RESISTOR
T 49600 45100 5 10 1 1 0 0 1
refdes=Rs
T 49400 45900 5 10 1 1 180 0 1
value=1k
}
N 49500 45000 49500 44500 4
N 49500 46600 49500 45900 4
{
T 49600 46350 5 10 1 1 180 6 1
netname=out
}
C 50400 44200 1 0 0 gnd-1.sym
N 49700 47000 50500 47000 4
N 50500 47000 50500 44500 4
C 43500 42100 1 0 0 title-A4.sym
