v 20201216 2
C 40000 40000 0 0 0 title-B.sym
C 46800 48000 1 270 0 current-1.sym
{
T 47800 47400 5 10 0 0 270 0 1
device=CURRENT_SOURCE
T 47300 47700 5 10 1 1 270 0 1
refdes=I1
T 46800 48000 5 10 1 0 0 0 1
value=100u
}
C 46800 48500 1 0 0 vdd-1.sym
C 45500 45700 1 0 0 pmos-1.sym
{
T 46100 45900 5 10 0 0 0 0 1
device=PMOS_TRANSISTOR
T 46200 46300 5 10 1 1 0 0 1
refdes=Q1
T 45100 46800 5 10 1 1 0 0 1
model-name=pmos
T 45100 46200 5 10 1 0 0 0 1
l=1u
T 45100 46400 5 10 1 0 0 0 1
w=4u
T 45100 46600 5 10 1 0 0 0 1
m=10
}
C 48500 45700 1 0 1 pmos-1.sym
{
T 47900 45900 5 10 0 0 0 6 1
device=PMOS_TRANSISTOR
T 47800 46300 5 10 1 1 0 6 1
refdes=Q3
T 48400 46800 5 10 1 1 0 0 1
model-name=pmos
T 48400 46200 5 10 1 0 0 0 1
l=1u
T 48400 46400 5 10 1 0 0 0 1
w=4u
T 48400 46600 5 10 1 0 0 0 1
m=10
}
N 46000 47000 48000 47000 4
N 46000 47000 46000 46500 4
N 47000 47100 47000 47000 4
N 48000 47000 48000 46500 4
N 47000 48000 47000 48500 4
N 46200 46100 46200 46500 4
N 46200 46500 46000 46500 4
N 47800 46100 47800 46500 4
N 47800 46500 48000 46500 4
C 47500 44200 1 0 0 nmos-1.sym
{
T 48200 45000 5 10 0 0 0 0 1
device=NMOS_TRANSISTOR
T 48200 44800 5 10 1 1 0 0 1
refdes=Q4
T 48200 45200 5 10 0 0 0 0 1
symversion=0.1
T 47300 44200 5 10 1 1 0 0 1
model-name=nmos
T 47300 43800 5 10 1 0 0 0 1
l=1u
T 47300 44000 5 10 1 0 0 0 1
w=2u
}
C 46500 44200 1 0 1 nmos-1.sym
{
T 45800 45000 5 10 0 0 0 6 1
device=NMOS_TRANSISTOR
T 45800 44800 5 10 1 1 0 6 1
refdes=Q2
T 45800 45200 5 10 0 0 0 6 1
symversion=0.1
T 46200 44200 5 10 1 1 0 0 1
model-name=nmos
T 46200 43800 5 10 1 0 0 0 1
l=1u
T 46200 44000 5 10 1 0 0 0 1
w=2u
}
C 45900 43700 1 0 0 gnd-1.sym
C 47900 43700 1 0 0 gnd-1.sym
N 48000 44200 48000 44000 4
N 46000 44000 46000 44200 4
N 46500 44600 47500 44600 4
N 48000 45000 48000 45700 4
N 46000 45000 46000 45700 4
N 46500 44600 46500 45000 4
N 46500 45000 46000 45000 4
N 48200 44600 48200 44200 4
N 48200 44200 48000 44200 4
N 45800 44600 45800 44200 4
N 45800 44200 46000 44200 4
N 48500 45200 48000 45200 4
{
T 48400 45250 5 10 1 1 0 6 1
netname=out
}
T 40000 40000 8 10 1 1 0 0 1
netname=out
C 44300 45000 1 270 0 voltage-3.sym
{
T 45000 44800 5 8 0 0 270 0 1
device=VOLTAGE_SOURCE
T 44800 44700 5 10 1 1 270 0 1
refdes=Vp
T 44500 44800 5 10 1 0 0 0 1
value=dc 2.5
}
C 43300 45000 1 270 0 voltage-3.sym
{
T 44000 44800 5 8 0 0 270 0 1
device=VOLTAGE_SOURCE
T 43800 44700 5 10 1 1 270 0 1
refdes=Vn
T 43500 44800 5 10 1 0 0 0 1
value=dc 2.5
}
C 44400 43600 1 0 0 gnd-1.sym
N 44500 43900 44500 44100 4
C 43400 43600 1 0 0 gnd-1.sym
N 43500 43900 43500 44100 4
N 44500 45000 44500 45500 4
N 43500 46100 45500 46100 4
{
T 43600 46150 5 10 1 1 0 0 1
netname=n
}
N 48500 46100 48500 45500 4
N 48500 45500 44500 45500 4
{
T 44800 45550 5 10 1 1 0 6 1
netname=p
}
C 42300 45000 1 270 0 voltage-3.sym
{
T 43000 44800 5 8 0 0 270 0 1
device=VOLTAGE_SOURCE
T 42800 44700 5 10 1 1 270 0 1
refdes=Vdd
T 42500 44800 5 10 1 0 0 0 1
value=dc 5
}
N 47000 48500 42500 48500 4
N 42500 48500 42500 45000 4
C 42400 43600 1 0 0 gnd-1.sym
N 42500 43900 42500 44100 4
C 49500 46400 1 0 0 spice-directive-1.sym
{
T 49600 46700 5 10 0 1 0 0 1
device=directive
T 49600 46800 5 10 1 1 0 0 1
refdes=A1
T 49600 46500 5 10 1 1 0 0 1
value=.model nmos nmos
}
C 49500 45400 1 0 0 spice-directive-1.sym
{
T 49600 45700 5 10 0 1 0 0 1
device=directive
T 49600 45800 5 10 1 1 0 0 1
refdes=A2
T 49600 45500 5 10 1 1 0 0 1
value=.model pmos pmos
}
C 43300 46100 1 270 0 voltage-1.sym
{
T 43800 46000 5 10 0 0 270 0 1
device=VOLTAGE_SOURCE
T 43800 45800 5 10 1 1 270 0 1
refdes=Vin
T 43500 45900 5 10 1 0 0 0 1
value=ac 1
}
N 43500 45200 43500 45000 4
