v 20201216 2
C -200 0 1 270 0 voltage-3.sym
{
T 500 -200 5 8 0 0 270 0 1
device=VOLTAGE_SOURCE
T 300 -300 5 10 1 1 270 0 1
refdes=V1
T 100 -200 5 10 1 0 0 0 1
value=5
}
C 500 400 1 0 0 resistor-1.sym
{
T 800 800 5 10 0 0 0 0 1
device=RESISTOR
T 700 700 5 10 1 1 0 0 1
refdes=R1
T 500 300 5 10 1 0 0 0 1
value=1k
}
C 1900 0 1 270 0 resistor-1.sym
{
T 2300 -300 5 10 0 0 270 0 1
device=RESISTOR
T 2200 -200 5 10 1 1 270 0 1
refdes=R2
T 2200 -100 5 10 1 0 0 0 1
value=1k
}
C 900 -1800 1 0 0 gnd-1.sym
N 0 0 0 500 4
N 0 500 500 500 4
{
T -500 550 5 10 1 0 0 0 1
netname=in
}
N 1400 500 2000 500 4
{
T 1500 550 5 10 1 0 0 0 1
netname=out
}
N 2000 500 2000 0 4
N 2000 -900 2000 -1000 4
N 0 -1000 2000 -1000 4
N 1000 -1000 1000 -1500 4
N 0 -1000 0 -900 4
